***** ElmerGrid input file for structured grid generation *****
Version = 210903
Coordinate System = Cartesian 1D
Subcell Divisions in 1D = 3 
Subcell Limits 1 = -1 0 5 2
Material Structure in 1D
  2  1  3
End
Materials Interval = 1 1
Boundary Definitions
! type     out      int     
  1        2        1        1       
  2        3        1        1       
End
Numbering = Horizontal
Element Degree = 1
Element Innernodes = False
Plane Elements = 100
Coordinate Ratios = 1       
Minimum Element Divisions = 1 1
Element Ratios 1 = 1 1 1 1
Element Ratios 2 = 1 1 1 1
Element Densities 1 = 1 1 1 1 
Element Densities 2 = 1 1 1 1
